{
    "pageName": "Projects",
    "pageType": "Edit",
    "editPage":"Company Directory",
    "restServiceUrl": "pmc/projectCompany",
    "panels": [],
    "ComponentItem": [],
    "tools": {
        "sorting": false,
        "new": false,
        "edit": false,
        "export": false,
        "delete": false,
        "view": false,
        "back": true,
        "ComponentItem":[
            {
                "name": "done",
                "htmlTag": "button",
                "inputTagType": "button",
                "value": "Done",
                "id": "done",
                "redirectUrl":"/authenticate/list/project",
                "events": [
                    {
                        "type": "onclick",
                        "functions": [
                            {
                                "name": "done",
                                "params": ""
                            }
                        ]
                    }
                ]
            },
            {
                "name": "save",
                "htmlTag": "button",
                "inputTagType": "button",
                "value": "Save",
                "top":true,
                "id": "saveTop",
                "redirectUrl":"",
                "events": [
                    {
                        "type": "onclick",
                        "functions": [
                            {
                                "name": "saveCompany",
                                "params": ""
                            }
                        
                        ]
                    }
                ]
            },
            {
                "name": "cancel",
                "htmlTag": "button",
                "inputTagType": "button",
                "value": "Cancel",
                "id": "cancel",
                "events": [
                    {
                        "type": "onclick",
                        "functions": [
                            {
                                "name": "cancel",
                                "params": ""
                            }
                        ]
                    }
                ]
            }
        ]
    }
}