{
    "pageName": "Plans",
    "pageType": "Edit",
    "editPage": "Edit",
    "fetchRestServiceUrl": "ulc/plan",
    "restServiceUrl": "ulc/plan",
    "panels": [
        {
            "panelName": "Plan Details",
            "type": "simple",
            "items": [
                {
                    "name": "id",
                    "htmlTag": "input",
                    "inputTagType": "text",
                    "label": "Plan Id",
                    "value": "",
                    "fieldType":"hidden",
                    "bindingDbFieldName": "id"
                },
                {
                    "name": "planName",
                    "htmlTag": "input",
                    "inputTagType": "text",
                    "label": "Plan Name",
                    "value": "",
                    "bindingDbFieldName": "name",
                    "readOnly": false,
                    "errorMsg": "Plan name",
                    "nextErrorMsg": "plan name",
                    "bindingDbFieldType": "string",
                    "validation": {
                        "required": true,
                        "minLength": "",
                        "maxLength": "",
                        "pattern": ""
                    }
                },
                {
                    "name": "maximumProject",
                    "htmlTag": "input",
                    "inputTagType": "text",
                    "label": "Maximum Project",
                    "value": "9999",
                    "bindingDbFieldName": "projectsAllowed",
                    "readOnly": true,
                    "bindingDbFieldType": "integer",
                    "validation": {
                        "required": false
                    }
                },
                {
                    "name": "monthlyAmount",
                    "htmlTag": "input",
                    "inputTagType": "text",
                    "label": "Monthly Amount",
                    "subLabel": "(in dollars)",
                    "value": "",
                    "bindingDbFieldName": "monthly",
                    "readOnly": false,
                    "errorMsg": "Monthly amount",
                    "nextErrorMsg": "monthly amount",
                    "bindingDbFieldType": "integer",
                    "validation": {
                        "required": true,
                        "minLength": "",
                        "maxLength": "",
                        "pattern": ""
                    }
                },
                {
                    "name": "annuallyAmount",
                    "htmlTag": "input",
                    "inputTagType": "text",
                    "label": "Annually Amount",
                    "subLabel": "(in dollars)",
                    "value": "",
                    "bindingDbFieldName": "annually",
                    "readOnly": false,
                    "errorMsg": "Annually amount",
                    "nextErrorMsg": "annually amount",
                    "bindingDbFieldType": "integer",
                    "validation": {
                        "required": true,
                        "minLength": "",
                        "maxLength": "",
                        "pattern": ""
                    }
                }
            ]
        }
    ],
    "ComponentItem": [],
    "tools": {
        "sorting": false,
        "new": false,
        "edit": false,
        "export": false,
        "delete": false,
        "view": false,
        "back": true,
        "ComponentItem":[
            {
                "name": "save",
                "htmlTag": "button",
                "inputTagType": "button",
                "value": "Save",
                "top":true,
                "id": "saveTop",
                "redirectUrl":"/authenticate/list/plan",
                "events": [
                    {
                        "type": "onclick",
                        "functions": [
                            {
                                "name": "editProj",
                                "params": ""
                            }
                        
                        ]
                    }
                ]
            },
            {
                "name": "project",
                "htmlTag": "button",
                "inputTagType": "button",
                "value": "Cancel",
                "id": "cancel",
                "redirectUrl":"/authenticate/list/plan",
                "events": [
                    {
                        "type": "onclick",
                        "functions": [
                            {
                                "name": "cancel",
                                "params": ""
                            }
                        ]
                    }
                ]
            }
        ]
    }
}