{
	"success": "Success",
	"message": "Do You Want to Download the Error File?",
	"successMessage" : "Your data imported successfully, please check after some time",
	"importMessage":"If you want to view your imported data",
	"UpdateMessage":"If you want to view your updated data"
	
}


